…
```
## Warning: Returning more (or less) than 1 row per `summarise()` group was deprecated in
## dplyr 1.1.0.
## ℹ Please use `reframe()` instead.
## ℹ When switching from `summarise()` to `reframe()`, remember that `reframe()`
##   always returns an ungrouped data frame and adjust accordingly.
```

```
## `summarise()` has grouped output by 'week', 'student'. You can override using
## the `.groups` argument.
```

```
## # A tibble: 300 × 5
## # Groups:   week, student [300]
##     week student sum_hap index_total prop_hap
##    <int>   <int>   <int>       <int>    <dbl>
##  1     1       1     638        2889    0.221
##  2     1       2     899        3966    0.227
##  3     1       3    1102        4964    0.222
##  4     1       4    1006        4583    0.220
##  5     1       5    1222        4952    0.247
##  6     1       6     926        4485    0.206
##  7     1       7    1519        5763    0.264
##  8     1       8     817        3795    0.215
##  9     1       9     660        3434    0.192
## 10     1      10     498        2672    0.186
## # … with 290 more rows
```
…
