…
We can then use the `tidy()` function from `tidytext` to gather the relevant parameters we've estimated. To get the $\beta$ per-topic-per-word probabilities (i.e., the probability that the given term belongs to a given topic) we can do the following.


``` r
lda_beta <- tidy(lda_output, matrix = "beta")

lda_beta %>%
  arrange(-beta)
```

```
## # A tibble: 104,730 × 3
##    topic term      beta
##    <int> <chr>    <dbl>
##  1     6 percent 0.0294
##  2     3 percent 0.0260
##  3     1 bush    0.0195
##  4     9 soviet  0.0160
##  5     6 prices  0.0144
##  6    10 bank    0.0143
##  7     6 year    0.0135
##  8     4 police  0.0130
##  9     2 new     0.0124
## 10    10 new     0.0113
## # ℹ 104,720 more rows
```

And to get the $\gamma$ per-document-per-topic probabilities (i.e., the probability that a given document (here: article) belongs to a particular topic) we do the following.



``` r
lda_gamma <- tidy(lda_output, matrix = "gamma")

lda_gamma %>%
  arrange(-gamma)
```

```
## # A tibble: 1,000 × 3
##    document topic gamma
##       <int> <int> <dbl>
##  1       76     7  1.00
##  2       81     5  1.00
##  3        6     2  1.00
##  4       43     9  1.00
##  5       31     6  1.00
##  6       95     2  1.00
##  7       77     1  1.00
##  8       29     9  1.00
##  9       80     1  1.00
## 10       57     7  1.00
## # ℹ 990 more rows
```
…
